…
```
## The following objects are masked from 'package:base':
## 
##     intersect, setdiff, setequal, union
```

```r
t <- installed.packages() %>% as_tibble()
t
```

```
## # A tibble: 249 x 16
##    Package LibPath Version Priority Depends Imports LinkingTo Suggests
##    <chr>   <chr>   <chr>   <chr>    <chr>   <chr>   <chr>     <chr>   
##  1 acepack /Libra… 1.4.1   <NA>     <NA>    <NA>    <NA>      testthat
##  2 animat… /Libra… 2.5     <NA>     R (>= … <NA>    <NA>      MASS, c…
##  3 ape     /Libra… 5.0     <NA>     R (>= … "nlme,… Rcpp      gee, ex…
##  4 assert… /Libra… 0.2.0   <NA>     <NA>    tools   <NA>      testthat
##  5 backpo… /Libra… 1.1.2   <NA>     R (>= … utils   <NA>      <NA>    
##  6 base    /Libra… 3.3.3   base     <NA>    <NA>    <NA>      methods 
##  7 base64  /Libra… 2.0     <NA>     <NA>    openssl <NA>      <NA>    
##  8 base64… /Libra… 0.1-3   <NA>     R (>= … <NA>    <NA>      <NA>    
##  9 bcimod… /Libra… 0.0.0.… <NA>     "\nR (… "\nggp… <NA>      "\ntest…
## 10 BH      /Libra… 1.66.0… <NA>     <NA>    <NA>    <NA>      <NA>    
## # ... with 239 more rows, and 8 more variables: Enhances <chr>,
## #   License <chr>, License_is_FOSS <chr>, License_restricts_use <chr>,
## #   OS_type <chr>, MD5sum <chr>, NeedsCompilation <chr>, Built <chr>
```
…
